// Jest Snapshot v1, https://goo.gl/fbAQLP

exports[`Register As Contact POST /patientSubmission returns Email Template 1`] = `
"Sehr geehrte Damen und Herren,

ich hatte Kontakt mit einem COVID-19-Fall. Mit dieser E-Mail erhalten Sie meine Daten mit Bitte um Kontaktaufnahme, um das weitere Vorgehen abzustimmen:

KONTAKTDATEN
Andreas Fiedler, männlich, geboren am 19.01.1990
Zinglerstraße 50
89077 Ulm
Telefon: +491761234567
E-Mail-Adresse: test-dev@test.com

ANAMNESE
Symptome: Ja
Datum Symptombeginn: 29.08.2020
Beschreibung der Symptome: Husten
Grunderkrankungen: Diabetes
Schwangerschaft: Ja, 12. Woche

LETZTER KONTAKT ZU MUTMASSLICH ODER BESTÄTIGTEM COVID-19 PATIENTEN
Bekannt durch: Persönlicher Kontakt
Datum des Kontaktes: 28.08.2020
Enge des Kontaktes: Kategorie 2 - Zugewandter Kontakt zu einem bestätigten Fall für weniger als 15 Minuten von mehr als 2m Abstand, Aufenthalt in einem Risikogebiet/-lokalität oder medizinisches Personal ohne Schutzausrüstung bei mehr als 2m Abstand.
Beschreibung der Enge des Kontaktes: Begründung für Kontakt
Kontaktperson:
Vorname: Hans
Nachname: Müller
Telefon: +4915124315261
E-Mail-Adresse: test@test.de
Lokalität: Restaurant XY

PERSÖNLICHE NACHRICHT
Meine persönliche Nachricht

Mit freundlichen Grüßen
Andreas Fiedler


-----

Die Daten wurden durch das Projekt Digitales Wartezimmer erfasst (https://digitales-wartezimmer.org/).  "
`;

exports[`Register As Contact POST /patientSubmission returns Email Template for CWA infection 1`] = `
Object {
  "data": Object {
    "body": "Sehr geehrte Damen und Herren,

ich hatte Kontakt mit einem COVID-19-Fall. Mit dieser E-Mail erhalten Sie meine Daten mit Bitte um Kontaktaufnahme, um das weitere Vorgehen abzustimmen:

KONTAKTDATEN
Andreas Fiedler, männlich, geboren am 19.01.1990
Zinglerstraße 50
89077 Ulm
Telefon: +491761234567
E-Mail-Adresse: test-dev@test.com

ANAMNESE
Symptome: Ja
Datum Symptombeginn: 29.08.2020
Beschreibung der Symptome: Husten
Grunderkrankungen: Diabetes
Schwangerschaft: Ja, 12. Woche

LETZTER KONTAKT ZU MUTMASSLICH ODER BESTÄTIGTEM COVID-19 PATIENTEN
Bekannt durch: Risikowarnung durch Corona-Warn App
Datum der letzen Risikobegegnung: 28.08.2020
Anzahl an Risikobegegnungen: 1

PERSÖNLICHE NACHRICHT
Meine persönliche Nachricht

Mit freundlichen Grüßen
Andreas Fiedler


-----

Die Daten wurden durch das Projekt Digitales Wartezimmer erfasst (https://digitales-wartezimmer.org/).  ",
    "healthOfficeEmail": "Gesundheitsamt@alb-donau-kreis.de",
    "subject": "Meldung COVID-19 Verdachtsfall",
    "userEmail": "test-dev@test.com",
  },
  "errored": false,
  "submitted": false,
  "workflow": "email",
}
`;

exports[`Register As Contact POST /patientSubmission returns Email Template for establishment infection 1`] = `
Object {
  "data": Object {
    "body": "Sehr geehrte Damen und Herren,

ich hatte Kontakt mit einem COVID-19-Fall. Mit dieser E-Mail erhalten Sie meine Daten mit Bitte um Kontaktaufnahme, um das weitere Vorgehen abzustimmen:

KONTAKTDATEN
Andreas Fiedler, männlich, geboren am 19.01.1990
Zinglerstraße 50
89077 Ulm
Telefon: +491761234567
E-Mail-Adresse: test-dev@test.com

ANAMNESE
Symptome: Ja
Datum Symptombeginn: 29.08.2020
Beschreibung der Symptome: Husten
Grunderkrankungen: Diabetes
Schwangerschaft: Ja, 12. Woche

LETZTER KONTAKT ZU MUTMASSLICH ODER BESTÄTIGTEM COVID-19 PATIENTEN
Bekannt durch: Benachrichtigung durch öffentliche Einrichtung (z,B. Restaurant)
Datum: 28.08.2020
Lokalität: Restaurant XY

PERSÖNLICHE NACHRICHT
Meine persönliche Nachricht

Mit freundlichen Grüßen
Andreas Fiedler


-----

Die Daten wurden durch das Projekt Digitales Wartezimmer erfasst (https://digitales-wartezimmer.org/).  ",
    "healthOfficeEmail": "Gesundheitsamt@alb-donau-kreis.de",
    "subject": "Meldung COVID-19 Verdachtsfall",
    "userEmail": "test-dev@test.com",
  },
  "errored": false,
  "submitted": false,
  "workflow": "email",
}
`;

exports[`Register As Contact POST /patientSubmission returns Email Template for personal infection 1`] = `
Object {
  "data": Object {
    "body": "Sehr geehrte Damen und Herren,

ich hatte Kontakt mit einem COVID-19-Fall. Mit dieser E-Mail erhalten Sie meine Daten mit Bitte um Kontaktaufnahme, um das weitere Vorgehen abzustimmen:

KONTAKTDATEN
Andreas Fiedler, männlich, geboren am 19.01.1990
Zinglerstraße 50
89077 Ulm
Telefon: +491761234567
E-Mail-Adresse: test-dev@test.com

ANAMNESE
Symptome: Ja
Datum Symptombeginn: 29.08.2020
Beschreibung der Symptome: Husten
Grunderkrankungen: Diabetes
Schwangerschaft: Ja, 12. Woche

LETZTER KONTAKT ZU MUTMASSLICH ODER BESTÄTIGTEM COVID-19 PATIENTEN
Bekannt durch: Persönlicher Kontakt
Datum des Kontaktes: 28.08.2020
Enge des Kontaktes: Kategorie 2 - Zugewandter Kontakt zu einem bestätigten Fall für weniger als 15 Minuten von mehr als 2m Abstand, Aufenthalt in einem Risikogebiet/-lokalität oder medizinisches Personal ohne Schutzausrüstung bei mehr als 2m Abstand.
Beschreibung der Enge des Kontaktes: Begründung für Kontakt
Kontaktperson:
Vorname: Hans
Nachname: Müller
Telefon: +4915124315261
E-Mail-Adresse: test@test.de
Lokalität: Restaurant XY

PERSÖNLICHE NACHRICHT
Meine persönliche Nachricht

Mit freundlichen Grüßen
Andreas Fiedler


-----

Die Daten wurden durch das Projekt Digitales Wartezimmer erfasst (https://digitales-wartezimmer.org/).  ",
    "healthOfficeEmail": "Gesundheitsamt@alb-donau-kreis.de",
    "subject": "Meldung COVID-19 Verdachtsfall",
    "userEmail": "test-dev@test.com",
  },
  "errored": false,
  "submitted": false,
  "workflow": "email",
}
`;

exports[`Register As Contact POST /patientSubmission returns Email Template without given email 1`] = `
"Sehr geehrte Damen und Herren,

ich hatte Kontakt mit einem COVID-19-Fall. Mit dieser E-Mail erhalten Sie meine Daten mit Bitte um Kontaktaufnahme, um das weitere Vorgehen abzustimmen:

KONTAKTDATEN
Andreas Fiedler, männlich, geboren am 19.01.1990
Zinglerstraße 50
89077 Ulm
Telefon: +491761234567
E-Mail-Adresse: -

ANAMNESE
Symptome: Ja
Datum Symptombeginn: 29.08.2020
Beschreibung der Symptome: Husten
Grunderkrankungen: Diabetes
Schwangerschaft: Ja, 12. Woche

LETZTER KONTAKT ZU MUTMASSLICH ODER BESTÄTIGTEM COVID-19 PATIENTEN
Bekannt durch: Persönlicher Kontakt
Datum des Kontaktes: 28.08.2020
Enge des Kontaktes: Kategorie 2 - Zugewandter Kontakt zu einem bestätigten Fall für weniger als 15 Minuten von mehr als 2m Abstand, Aufenthalt in einem Risikogebiet/-lokalität oder medizinisches Personal ohne Schutzausrüstung bei mehr als 2m Abstand.
Beschreibung der Enge des Kontaktes: Begründung für Kontakt
Kontaktperson:
Vorname: Hans
Nachname: Müller
Telefon: +4915124315261
E-Mail-Adresse: test@test.de
Lokalität: Restaurant XY

PERSÖNLICHE NACHRICHT
Meine persönliche Nachricht

Mit freundlichen Grüßen
Andreas Fiedler


-----

Die Daten wurden durch das Projekt Digitales Wartezimmer erfasst (https://digitales-wartezimmer.org/).  "
`;
